%YAML 1.1
%TAG !u! tag:unity3d.com,2011:
--- !u!1045 &1
EditorBuildSettings:
  m_ObjectHideFlags: 0
  serializedVersion: 2
  m_Scenes:
  - enabled: 1
    path: Assets/Scenes/Selector.unity
    guid: 15120782103dafc49ad8de72ae6d476f
  - enabled: 1
    path: Assets/Scenes/Juego mundo.unity
    guid: 99c9720ab356a0642a771bea13969a05
  - enabled: 1
    path: Assets/Scenes/Juego Rampas.unity
    guid: b6b9e3cb91c5c744682b5428b1a18e88
  - enabled: 1
    path: Assets/Scenes/JuegoGravedad.unity
    guid: 7c64f54b2283bbd498756706fabda23c
  - enabled: 1
    path: Assets/Scenes/Color Switch.unity
    guid: b17250e86bff3b1439bb962d8336ca41
  - enabled: 1
    path: Assets/Scenes/Flappy Bird.unity
    guid: 2d83d2cde764dbf4a9494f04e4ef7b86
  m_configObjects: {}
